{"items":[{"email":"george.bluth@reqres.in","first_name":"George","last_name":"Bluth","id":1,"avatar":"https://reqres.in/img/faces/1-image.jpg"}],"total":15,"page":1,"size":1,"pages":15}