{"items":[{"first_name":"George","last_name":"Bluth","id":1,"email":"george.bluth@reqres.in","avatar":"https://reqres.in/img/faces/1-image.jpg"},{"first_name":"Janet","last_name":"Weaver","id":2,"email":"janet.weaver@reqres.in","avatar":"https://reqres.in/img/faces/2-image.jpg"},{"first_name":"Emma","last_name":"Wong","id":3,"email":"emma.wong@reqres.in","avatar":"https://reqres.in/img/faces/3-image.jpg"},{"first_name":"Eve","last_name":"Holt","id":4,"email":"eve.holt@reqres.in","avatar":"https://reqres.in/img/faces/4-image.jpg"},{"first_name":"Charles","last_name":"Morris","id":5,"email":"charles.morris@reqres.in","avatar":"https://reqres.in/img/faces/5-image.jpg"},{"first_name":"Tracey","last_name":"Ramos","id":6,"email":"tracey.ramos@reqres.in","avatar":"https://reqres.in/img/faces/6-image.jpg"},{"first_name":"Michael","last_name":"Lawson","id":7,"email":"michael.lawson@reqres.in","avatar":"https://reqres.in/img/faces/7-image.jpg"},{"first_name":"Lindsay","last_name":"Ferguson","id":8,"email":"lindsay.ferguson@reqres.in","avatar":"https://reqres.in/img/faces/8-image.jpg"},{"first_name":"Tobias","last_name":"Funke","id":9,"email":"tobias.funke@reqres.in","avatar":"https://reqres.in/img/faces/9-image.jpg"},{"first_name":"Byron","last_name":"Fields","id":10,"email":"byron.fields@reqres.in","avatar":"https://reqres.in/img/faces/10-image.jpg"},{"first_name":"George","last_name":"Edwards","id":11,"email":"george.edwards@reqres.in","avatar":"https://reqres.in/img/faces/11-image.jpg"},{"first_name":"Rachel","last_name":"Howell","id":12,"email":"rachel.howell@reqres.in","avatar":"https://reqres.in/img/faces/12-image.jpg"}],"total":15,"page":1,"size":12,"pages":2}