{"items":[{"id":1,"name":"cerulean","color":"#98B2D1","pantone_value":"15-4020","year":2000},{"id":2,"name":"fuchsia rose","color":"#C74375","pantone_value":"17-2031","year":2001},{"id":3,"name":"true red","color":"#BF1932","pantone_value":"19-1664","year":2002},{"id":4,"name":"aqua sky","color":"#7BC4C4","pantone_value":"14-4811","year":2003},{"id":5,"name":"tigerlily","color":"#E2583E","pantone_value":"17-1456","year":2004},{"id":6,"name":"blue turquoise","color":"#53B0AE","pantone_value":"15-5217","year":2005}],"total":15,"page":1,"size":6,"pages":3}