{"items":[{"email":"george.bluth@reqres.in","first_name":"George","avatar":"https://reqres.in/img/faces/1-image.jpg","id":1,"last_name":"Bluth"},{"email":"janet.weaver@reqres.in","first_name":"Janet","avatar":"https://reqres.in/img/faces/2-image.jpg","id":2,"last_name":"Weaver"},{"email":"emma.wong@reqres.in","first_name":"Emma","avatar":"https://reqres.in/img/faces/3-image.jpg","id":3,"last_name":"Wong"},{"email":"eve.holt@reqres.in","first_name":"Eve","avatar":"https://reqres.in/img/faces/4-image.jpg","id":4,"last_name":"Holt"},{"email":"charles.morris@reqres.in","first_name":"Charles","avatar":"https://reqres.in/img/faces/5-image.jpg","id":5,"last_name":"Morris"},{"email":"tracey.ramos@reqres.in","first_name":"Tracey","avatar":"https://reqres.in/img/faces/6-image.jpg","id":6,"last_name":"Ramos"}],"total":15,"page":1,"size":6,"pages":3}