{"items":[{"id":7,"first_name":"Michael","last_name":"Lawson","avatar":"https://reqres.in/img/faces/7-image.jpg","email":"michael.lawson@reqres.in"},{"id":8,"first_name":"Lindsay","last_name":"Ferguson","avatar":"https://reqres.in/img/faces/8-image.jpg","email":"lindsay.ferguson@reqres.in"},{"id":9,"first_name":"Tobias","last_name":"Funke","avatar":"https://reqres.in/img/faces/9-image.jpg","email":"tobias.funke@reqres.in"},{"id":10,"first_name":"Byron","last_name":"Fields","avatar":"https://reqres.in/img/faces/10-image.jpg","email":"byron.fields@reqres.in"},{"id":11,"first_name":"George","last_name":"Edwards","avatar":"https://reqres.in/img/faces/11-image.jpg","email":"george.edwards@reqres.in"},{"id":12,"first_name":"Rachel","last_name":"Howell","avatar":"https://reqres.in/img/faces/12-image.jpg","email":"rachel.howell@reqres.in"}],"total":15,"page":2,"size":6,"pages":3}