{"items":[{"id":7,"name":"sand dollar","color":"#DECDBE","pantone_value":"13-1106","year":2006},{"id":8,"name":"chili pepper","color":"#9B1B30","pantone_value":"19-1557","year":2007},{"id":9,"name":"blue iris","color":"#5A5B9F","pantone_value":"18-3943","year":2008},{"id":10,"name":"mimosa","color":"#F0C05A","pantone_value":"14-0848","year":2009},{"id":11,"name":"turquoise","color":"#45B5AA","pantone_value":"15-5519","year":2010},{"id":12,"name":"honeysuckle","color":"#D94F70","pantone_value":"18-2120","year":2011}],"total":15,"page":2,"size":6,"pages":3}