{"items":[{"id":7,"email":"michael.lawson@reqres.in","last_name":"Lawson","avatar":"https://reqres.in/img/faces/7-image.jpg","first_name":"Michael"},{"id":8,"email":"lindsay.ferguson@reqres.in","last_name":"Ferguson","avatar":"https://reqres.in/img/faces/8-image.jpg","first_name":"Lindsay"},{"id":9,"email":"tobias.funke@reqres.in","last_name":"Funke","avatar":"https://reqres.in/img/faces/9-image.jpg","first_name":"Tobias"},{"id":10,"email":"byron.fields@reqres.in","last_name":"Fields","avatar":"https://reqres.in/img/faces/10-image.jpg","first_name":"Byron"},{"id":11,"email":"george.edwards@reqres.in","last_name":"Edwards","avatar":"https://reqres.in/img/faces/11-image.jpg","first_name":"George"},{"id":12,"email":"rachel.howell@reqres.in","last_name":"Howell","avatar":"https://reqres.in/img/faces/12-image.jpg","first_name":"Rachel"}],"total":16,"page":2,"size":6,"pages":3}