{"items":[{"id":7,"name":"sand dollar","color":"#DECDBE","year":2006,"pantone_value":"13-1106"},{"id":8,"name":"chili pepper","color":"#9B1B30","year":2007,"pantone_value":"19-1557"},{"id":9,"name":"blue iris","color":"#5A5B9F","year":2008,"pantone_value":"18-3943"},{"id":10,"name":"mimosa","color":"#F0C05A","year":2009,"pantone_value":"14-0848"},{"id":11,"name":"turquoise","color":"#45B5AA","year":2010,"pantone_value":"15-5519"},{"id":12,"name":"honeysuckle","color":"#D94F70","year":2011,"pantone_value":"18-2120"}],"total":12,"page":2,"size":6,"pages":2}