{"items":[{"first_name":"Michael","avatar":"https://reqres.in/img/faces/7-image.jpg","id":7,"email":"michael.lawson@reqres.in","last_name":"Lawson"},{"first_name":"Lindsay","avatar":"https://reqres.in/img/faces/8-image.jpg","id":8,"email":"lindsay.ferguson@reqres.in","last_name":"Ferguson"},{"first_name":"Tobias","avatar":"https://reqres.in/img/faces/9-image.jpg","id":9,"email":"tobias.funke@reqres.in","last_name":"Funke"},{"first_name":"Byron","avatar":"https://reqres.in/img/faces/10-image.jpg","id":10,"email":"byron.fields@reqres.in","last_name":"Fields"},{"first_name":"George","avatar":"https://reqres.in/img/faces/11-image.jpg","id":11,"email":"george.edwards@reqres.in","last_name":"Edwards"},{"first_name":"Rachel","avatar":"https://reqres.in/img/faces/12-image.jpg","id":12,"email":"rachel.howell@reqres.in","last_name":"Howell"}],"total":15,"page":2,"size":6,"pages":3}