{"items":[{"color":"#98B2D1","id":1,"name":"cerulean","year":2000,"pantone_value":"15-4020"},{"color":"#C74375","id":2,"name":"fuchsia rose","year":2001,"pantone_value":"17-2031"},{"color":"#BF1932","id":3,"name":"true red","year":2002,"pantone_value":"19-1664"},{"color":"#7BC4C4","id":4,"name":"aqua sky","year":2003,"pantone_value":"14-4811"},{"color":"#E2583E","id":5,"name":"tigerlily","year":2004,"pantone_value":"17-1456"},{"color":"#53B0AE","id":6,"name":"blue turquoise","year":2005,"pantone_value":"15-5217"}],"total":12,"page":1,"size":6,"pages":2}