{"items":[{"id":1,"email":"george.bluth@reqres.in","last_name":"Bluth","avatar":"https://reqres.in/img/faces/1-image.jpg","first_name":"George"},{"id":2,"email":"janet.weaver@reqres.in","last_name":"Weaver","avatar":"https://reqres.in/img/faces/2-image.jpg","first_name":"Janet"},{"id":3,"email":"emma.wong@reqres.in","last_name":"Wong","avatar":"https://reqres.in/img/faces/3-image.jpg","first_name":"Emma"},{"id":4,"email":"eve.holt@reqres.in","last_name":"Holt","avatar":"https://reqres.in/img/faces/4-image.jpg","first_name":"Eve"},{"id":5,"email":"charles.morris@reqres.in","last_name":"Morris","avatar":"https://reqres.in/img/faces/5-image.jpg","first_name":"Charles"},{"id":6,"email":"tracey.ramos@reqres.in","last_name":"Ramos","avatar":"https://reqres.in/img/faces/6-image.jpg","first_name":"Tracey"}],"total":12,"page":1,"size":6,"pages":2}