{"items":[{"name":"cerulean","id":1,"color":"#98B2D1","pantone_value":"15-4020","year":2000},{"name":"fuchsia rose","id":2,"color":"#C74375","pantone_value":"17-2031","year":2001},{"name":"true red","id":3,"color":"#BF1932","pantone_value":"19-1664","year":2002},{"name":"aqua sky","id":4,"color":"#7BC4C4","pantone_value":"14-4811","year":2003},{"name":"tigerlily","id":5,"color":"#E2583E","pantone_value":"17-1456","year":2004},{"name":"blue turquoise","id":6,"color":"#53B0AE","pantone_value":"15-5217","year":2005},{"name":"sand dollar","id":7,"color":"#DECDBE","pantone_value":"13-1106","year":2006},{"name":"chili pepper","id":8,"color":"#9B1B30","pantone_value":"19-1557","year":2007},{"name":"blue iris","id":9,"color":"#5A5B9F","pantone_value":"18-3943","year":2008},{"name":"mimosa","id":10,"color":"#F0C05A","pantone_value":"14-0848","year":2009},{"name":"turquoise","id":11,"color":"#45B5AA","pantone_value":"15-5519","year":2010},{"name":"honeysuckle","id":12,"color":"#D94F70","pantone_value":"18-2120","year":2011}],"total":15,"page":1,"size":12,"pages":2}