{"items":[{"id":1,"first_name":"George","last_name":"Bluth","avatar":"https://reqres.in/img/faces/1-image.jpg","email":"george.bluth@reqres.in"}],"total":16,"page":1,"size":1,"pages":16}