{"items":[{"email":"michael.lawson@reqres.in","first_name":"Michael","avatar":"https://reqres.in/img/faces/7-image.jpg","id":7,"last_name":"Lawson"},{"email":"lindsay.ferguson@reqres.in","first_name":"Lindsay","avatar":"https://reqres.in/img/faces/8-image.jpg","id":8,"last_name":"Ferguson"},{"email":"tobias.funke@reqres.in","first_name":"Tobias","avatar":"https://reqres.in/img/faces/9-image.jpg","id":9,"last_name":"Funke"},{"email":"byron.fields@reqres.in","first_name":"Byron","avatar":"https://reqres.in/img/faces/10-image.jpg","id":10,"last_name":"Fields"},{"email":"george.edwards@reqres.in","first_name":"George","avatar":"https://reqres.in/img/faces/11-image.jpg","id":11,"last_name":"Edwards"},{"email":"rachel.howell@reqres.in","first_name":"Rachel","avatar":"https://reqres.in/img/faces/12-image.jpg","id":12,"last_name":"Howell"}],"total":15,"page":2,"size":6,"pages":3}