{"items":[{"color":"#98B2D1","id":1,"name":"cerulean","year":2000,"pantone_value":"15-4020"}],"total":15,"page":1,"size":1,"pages":15}