{"items":[{"id":1,"name":"cerulean","color":"#98B2D1","pantone_value":"15-4020","year":2000}],"total":15,"page":1,"size":1,"pages":15}