{"items":[{"color":"#DECDBE","id":7,"name":"sand dollar","year":2006,"pantone_value":"13-1106"},{"color":"#9B1B30","id":8,"name":"chili pepper","year":2007,"pantone_value":"19-1557"},{"color":"#5A5B9F","id":9,"name":"blue iris","year":2008,"pantone_value":"18-3943"},{"color":"#F0C05A","id":10,"name":"mimosa","year":2009,"pantone_value":"14-0848"},{"color":"#45B5AA","id":11,"name":"turquoise","year":2010,"pantone_value":"15-5519"},{"color":"#D94F70","id":12,"name":"honeysuckle","year":2011,"pantone_value":"18-2120"}],"total":12,"page":2,"size":6,"pages":2}